transcript
# vsim Remainder_tb -c -do "run -all" 
# Start time: 13:49:38 on May 11,2024
# Loading work.Remainder_tb
# Loading work.Remainder
# run -all
# [Pass], X=101 , Y=101, X % Y= result=100
# [Pass], X=101 , Y=110, X % Y= result=101
# [Pass], X=101 , Y=111, X % Y= result=101
# [Pass], X=101 , Y=000, X % Y= result=100
# [Pass], X=101 , Y=001, X % Y= result=100
# [Pass], X=101 , Y=010, X % Y= result=101
# [Pass], X=101 , Y=011, X % Y= result=101
# [Pass], X=110 , Y=101, X % Y= result=100
# [Pass], X=110 , Y=110, X % Y= result=100
# [Pass], X=110 , Y=111, X % Y= result=110
# [Pass], X=110 , Y=000, X % Y= result=100
# [Pass], X=110 , Y=001, X % Y= result=100
# [Pass], X=110 , Y=010, X % Y= result=100
# [Pass], X=110 , Y=011, X % Y= result=110
# [Pass], X=111 , Y=101, X % Y= result=100
# [Pass], X=111 , Y=110, X % Y= result=101
# [Pass], X=111 , Y=111, X % Y= result=100
# [Pass], X=111 , Y=000, X % Y= result=100
# [Pass], X=111 , Y=001, X % Y= result=100
# [Pass], X=111 , Y=010, X % Y= result=101
# [Pass], X=111 , Y=011, X % Y= result=100
# [Pass], X=000 , Y=101, X % Y= result=000
# [Pass], X=000 , Y=110, X % Y= result=000
# [Pass], X=000 , Y=111, X % Y= result=000
# [Pass], X=000 , Y=000, X % Y= result=000
# [Pass], X=000 , Y=001, X % Y= result=000
# [Pass], X=000 , Y=010, X % Y= result=000
# [Pass], X=000 , Y=011, X % Y= result=000
# [Pass], X=001 , Y=101, X % Y= result=000
# [Pass], X=001 , Y=110, X % Y= result=001
# [Pass], X=001 , Y=111, X % Y= result=001
# [Pass], X=001 , Y=000, X % Y= result=000
# [Pass], X=001 , Y=001, X % Y= result=000
# [Pass], X=001 , Y=010, X % Y= result=001
# [Pass], X=001 , Y=011, X % Y= result=001
# [Pass], X=010 , Y=101, X % Y= result=000
# [Pass], X=010 , Y=110, X % Y= result=000
# [Pass], X=010 , Y=111, X % Y= result=010
# [Pass], X=010 , Y=000, X % Y= result=000
# [Pass], X=010 , Y=001, X % Y= result=000
# [Pass], X=010 , Y=010, X % Y= result=000
# [Pass], X=010 , Y=011, X % Y= result=010
# [Pass], X=011 , Y=101, X % Y= result=000
# [Pass], X=011 , Y=110, X % Y= result=001
# [Pass], X=011 , Y=111, X % Y= result=000
# [Pass], X=011 , Y=000, X % Y= result=000
# [Pass], X=011 , Y=001, X % Y= result=000
# [Pass], X=011 , Y=010, X % Y= result=001
# [Pass], X=011 , Y=011, X % Y= result=000
# ** Note: $finish    : Remainder_tb.v(47)
#    Time: 4900 ps  Iteration: 0  Instance: /Remainder_tb
# End time: 13:49:39 on May 11,2024, Elapsed time: 0:00:01
# Errors: 0, Warnings: 0
